Chapter 6 Regression Trees | Statistical Reasoning through Computation and R
…
Figure 6.8: Regression tree with admission rates and ungraduate enrollments predicting median ACT score

Figure 6.8 shows the regression tree when adding the undergraduate enrollment attribute and the admission rate. The regression tree shows that the admission rate is the most important attribute in predicting the median ACT score (the first split in the regression tree). However, undergraduate enrollment is important as this is the second split for those with admission rates greater than 25%.

To fully understand how much better this model is than the one with only admission rates included, we can use MAE to evaluate the prediction accuracy. First, the predicted values from the new model and the new errors (predicted - observed) must be added to the data.

colleges_pred <- colleges_pred %>%
  mutate(act_pred2 = predict(act_reg2),
         error2 = actcmmid - act_pred2)

colleges_pred

## # A tibble: 1,289 × 7
##    instnm                    actcmmid act_pred error act_recode act_pred2 error2
##    <chr>                        <dbl>    <dbl> <dbl> <chr>          <dbl>  <dbl>
##  1 Alabama A & M University        18     21.5 -3.50 18              21.6 -3.55 
##  2 University of Alabama at…       25     21.5  3.50 25              24.8  0.222
##  3 University of Alabama in…       28     23.1  4.89 28              23.3  4.69 
##  4 Alabama State University        18     21.5 -3.50 18              21.6 -3.55 
##  5 The University of Alabama       28     23.1  4.89 28              24.8  3.22 
##  6 Auburn University at Mon…       22     23.1 -1.11 22              23.3 -1.31 
##  7 Auburn University               27     23.1  3.89 27              24.8  2.22 
##  8 Birmingham Southern Coll…       26     23.1  2.89 26              21.7  4.34 
##  9 Faulkner University             20     23.1 -3.11 20              23.3 -3.31 
## 10 Huntingdon College              22     23.1 -1.11 22              21.7  0.342
## # ℹ 1,279 more rows
…
